1,2001/04/21,51,469,183
2,2017/03/18,45,240,249
3,2015/01/14,54,148,109
4,2007/07/14,85,54,35
5,2017/10/12,30,408,417
6,2017/03/31,25,103,357
7,2014/05/13,19,473,78
8,2017/05/31,85,446,378
9,2000/09/27,45,259,333
10,2012/09/07,93,56,273
11,2010/08/15,69,374,366
12,2012/07/08,3,422,33
13,2010/08/08,96,228,45
14,2014/02/02,36,419,205
15,2004/01/31,97,136,32
16,2016/12/09,73,281,221
17,2017/11/25,6,409,184
18,2015/03/10,55,258,201
19,2008/04/24,39,239,177
20,2006/04/17,75,460,214
21,2017/09/24,11,35,100
22,2002/03/23,65,461,430
23,2002/11/14,16,334,401
24,2016/11/22,23,37,424
25,2009/12/26,46,254,58
26,2009/12/28,95,235,338
27,2017/01/07,84,384,279
28,2006/06/23,30,144,180
29,2000/03/01,59,435,287
30,2016/09/01,67,211,227
31,2013/01/09,47,219,156
32,2016/08/27,16,430,82
33,2011/06/17,32,195,351
34,2003/03/11,95,409,249
35,2016/02/16,2,224,99
36,2010/06/08,54,380,136
37,2013/08/22,54,74,493
38,2000/07/14,93,75,310
39,2007/03/25,98,349,477
40,2008/08/13,42,427,276
41,2011/06/24,48,161,127
42,2017/09/15,76,222,172
43,2005/11/14,46,180,57
44,2001/01/02,55,294,144
45,2011/12/11,85,325,293
46,2015/05/16,56,394,289
47,2010/06/16,80,106,475
48,2004/01/06,9,214,312
49,2007/01/11,9,26,94
50,2007/01/14,44,422,44
51,2005/12/20,16,313,256
52,2009/08/21,85,464,177
53,2001/02/06,19,101,199
54,2005/03/18,74,146,273
55,2006/07/12,81,22,14
56,2016/09/25,60,138,382
57,2006/02/08,70,36,322
58,2012/06/13,16,67,284
59,2004/12/01,45,432,3
60,2016/10/13,24,330,17
61,2006/06/26,59,25,475
62,2011/08/23,92,364,347
63,2006/03/18,45,372,158
64,2000/05/26,51,435,297
65,2006/01/06,8,227,263
66,2014/04/24,67,479,11
67,2008/06/29,35,204,215
68,2007/07/08,42,330,245
69,2017/11/28,17,89,4
70,2016/08/25,31,481,439
71,2017/09/15,50,69,189
72,2011/01/06,98,310,306
73,2014/01/23,22,34,245
74,2000/10/22,48,264,254
75,2001/02/05,37,86,366
76,2007/10/13,51,258,43
77,2006/01/09,41,176,41
78,2002/01/03,26,159,259
79,2008/01/30,36,147,60
80,2006/01/06,8,411,107
81,2014/05/23,94,253,160
82,2013/11/14,47,406,446
83,2004/04/17,41,51,392
84,2002/02/01,3,291,28
85,2015/12/08,41,402,306
86,2005/04/08,85,312,15
87,2015/03/11,92,11,350
88,2003/09/01,52,421,209
89,2005/02/25,1,391,478
90,2005/09/05,39,432,225
91,2004/03/29,68,253,397
92,2002/08/15,49,275,479
93,2013/02/09,82,73,499
94,2016/04/10,46,377,87
95,2008/01/29,35,238,490
96,2010/08/09,34,303,213
97,2001/06/25,95,33,59
98,2002/05/16,48,467,353
99,2012/06/11,1,229,444
100,2002/10/30,13,271,270
101,2003/12/03,83,399,183
102,2015/05/08,95,188,250
103,2017/03/25,78,258,88
104,2000/09/07,58,365,265
105,2009/05/22,82,288,135
106,2012/03/05,50,8,298
107,2016/09/18,95,248,269
108,2017/09/03,51,168,179
109,2013/12/22,19,453,169
110,2006/10/09,65,281,371
111,2005/09/09,21,197,223
112,2010/04/22,30,270,80
113,2015/07/06,58,463,461
114,2017/11/27,19,68,27
115,2009/12/13,59,377,343
116,2011/11/25,97,321,140
117,2011/11/07,18,345,429
118,2001/06/20,58,99,23
119,2008/02/01,2,411,3
120,2001/12/29,12,303,356
121,2012/11/15,83,217,477
122,2002/08/28,8,478,420
123,2007/02/17,27,429,225
124,2013/05/20,15,75,237
125,2002/12/04,0,316,267
126,2009/01/08,30,295,313
127,2013/06/13,22,272,263
128,2008/05/28,77,38,362
129,2004/08/12,84,402,250
130,2007/10/04,71,287,301
131,2014/06/19,59,345,203
132,2015/01/10,61,430,253
133,2013/02/18,63,143,249
134,2011/07/21,45,447,259
135,2005/12/04,39,163,244
136,2015/07/02,85,423,137
137,2002/11/12,48,213,184
138,2007/09/22,49,120,364
139,2008/12/20,19,335,405
140,2015/07/10,22,410,48
141,2015/09/28,52,277,460
142,2010/11/17,86,12,435
143,2001/08/22,34,370,355
144,2013/01/22,1,113,416
145,2014/06/14,80,326,314
146,2006/03/07,41,203,146
147,2008/07/28,77,140,298
148,2000/07/15,30,391,309
149,2010/12/27,46,82,223
150,2013/08/08,4,16,478
151,2015/09/14,66,352,478
152,2004/10/20,39,429,268
153,2007/05/29,35,1,12
154,2001/08/29,34,189,166
155,2007/12/23,43,410,90
156,2010/04/27,84,338,244
157,2008/08/09,80,496,370
158,2010/10/31,8,375,329
159,2001/11/23,86,393,70
160,2011/02/04,99,264,383
161,2012/04/17,96,184,5
162,2000/08/12,96,445,439
163,2006/05/16,94,454,392
164,2015/10/30,8,345,180
165,2002/02/21,10,221,103
166,2003/05/04,56,212,147
167,2007/05/14,13,20,105
168,2004/08/30,28,76,341
169,2011/06/16,78,464,433
170,2005/07/10,34,206,186
171,2001/06/26,47,402,135
172,2008/04/15,9,471,241
173,2008/04/14,40,6,203
174,2000/04/15,44,64,104
175,2016/07/03,20,464,465
176,2009/01/25,19,335,206
177,2000/03/20,45,444,483
178,2010/11/10,44,395,324
179,2015/06/26,21,491,336
180,2014/01/07,62,455,202
181,2014/03/25,84,417,169
182,2016/11/18,88,153,400
183,2013/08/16,78,37,290
184,2000/06/04,18,194,353
185,2000/06/29,14,363,247
186,2005/01/05,78,490,151
187,2012/06/28,59,226,421
188,2001/02/26,92,308,263
189,2001/01/13,11,355,97
190,2012/05/01,19,372,24
191,2015/08/18,22,275,255
192,2006/01/07,49,338,397
193,2013/10/07,34,197,308
194,2009/07/18,14,223,461
195,2001/08/31,73,254,138
196,2006/05/17,46,388,327
197,2009/12/14,68,9,281
198,2004/01/21,56,362,490
199,2010/10/30,47,161,140
200,2015/12/27,87,453,282
201,2015/11/13,14,82,29
202,2011/10/19,81,253,6
203,2013/11/20,11,216,323
204,2001/07/26,75,355,75
205,2012/08/21,38,390,462
206,2001/03/10,68,130,17
207,2013/09/01,3,86,117
208,2006/03/11,24,476,32
209,2017/10/04,41,123,267
210,2005/05/22,81,312,37
211,2015/09/03,4,457,87
212,2012/02/04,43,19,480
213,2003/08/20,49,330,11
214,2001/07/25,89,76,420
215,2016/10/20,50,274,152
216,2014/05/19,28,218,218
217,2012/04/07,47,27,109
218,2012/02/10,35,387,38
219,2001/07/06,24,35,181
220,2012/07/18,61,234,39
221,2015/12/15,64,231,167
222,2017/07/10,56,18,450
223,2001/04/12,99,301,154
224,2017/03/16,78,334,231
225,2000/05/05,3,491,306
226,2000/03/30,6,459,445
227,2001/02/03,18,71,438
228,2006/08/17,0,333,160
229,2009/07/21,88,487,323
230,2009/05/06,27,493,92
231,2010/10/04,82,54,245
232,2013/06/18,9,200,476
233,2012/10/22,93,101,265
234,2005/02/28,29,253,388
235,2001/09/03,97,163,364
236,2004/05/19,53,370,37
237,2010/01/04,6,68,372
238,2014/06/15,34,332,36
239,2016/07/25,62,368,322
240,2008/08/30,86,16,335
241,2001/02/12,99,481,335
242,2017/10/18,28,435,108
243,2000/03/17,1,464,159
244,2016/10/04,79,214,67
245,2010/02/16,12,265,460
246,2006/07/30,80,7,338
247,2000/12/27,76,63,344
248,2012/07/09,66,340,24
249,2015/03/06,27,186,311
250,2006/12/02,66,162,204
251,2000/04/10,78,68,291
252,2002/10/02,16,18,60
253,2003/12/27,92,434,161
254,2013/11/02,2,225,463
255,2011/04/15,68,328,450
256,2014/07/28,27,486,154
257,2004/10/20,95,228,296
258,2000/07/31,15,408,327
259,2012/12/03,38,476,19
260,2015/05/16,90,325,325
261,2004/12/20,6,336,460
262,2008/05/05,39,414,392
263,2003/09/06,22,291,7
264,2016/11/24,51,235,366
265,2008/03/13,22,190,209
266,2011/06/26,27,326,345
267,2007/10/29,23,38,295
268,2010/09/09,47,476,424
269,2008/01/17,46,339,126
270,2014/09/01,29,72,138
271,2005/05/30,77,295,453
272,2016/08/22,38,416,126
273,2002/07/14,20,157,395
274,2005/09/15,28,26,274
275,2012/09/11,98,171,42
276,2006/12/18,10,107,150
277,2011/06/15,98,71,53
278,2003/07/31,61,248,368
279,2007/06/11,74,244,129
280,2014/11/13,32,11,394
281,2005/12/07,10,54,408
282,2011/03/17,39,38,440
283,2013/01/09,76,349,403
284,2011/04/18,52,118,289
285,2005/11/01,15,55,191
286,2014/02/13,94,441,458
287,2017/07/30,46,58,183
288,2016/06/11,72,437,482
289,2016/05/14,81,327,5
290,2010/08/14,82,230,448
291,2010/06/20,40,437,10
292,2007/08/28,27,9,194
293,2009/11/05,36,34,252
294,2002/10/07,40,163,475
295,2001/01/16,98,248,236
296,2012/03/03,85,436,481
297,2004/09/11,14,86,64
298,2007/07/28,70,312,469
299,2005/06/04,25,185,347
300,2002/01/10,68,489,464
301,2006/10/29,12,106,92
302,2005/06/10,38,448,222
303,2002/10/09,50,385,345
304,2000/06/06,51,234,26
305,2006/11/30,36,423,294
306,2009/08/08,22,39,306
307,2010/10/24,92,262,30
308,2007/09/11,53,165,425
309,2010/07/20,19,278,177
310,2012/09/13,56,334,364
311,2005/07/21,32,354,100
312,2004/06/19,30,216,333
313,2015/11/02,87,301,89
314,2003/06/15,85,378,219
315,2008/09/13,95,414,348
316,2011/12/20,19,405,459
317,2009/06/12,48,274,96
318,2013/11/19,76,270,391
319,2003/02/25,57,296,430
320,2015/11/21,48,411,338
321,2004/05/17,18,52,290
322,2000/01/23,47,497,216
323,2001/03/17,22,62,35
324,2007/06/30,92,371,184
325,2006/11/02,68,339,156
326,2012/12/03,79,37,300
327,2004/04/10,3,398,453
328,2006/01/13,78,37,128
329,2007/08/19,28,15,275
330,2007/04/11,31,72,271
331,2012/10/27,20,412,178
332,2017/10/31,65,161,332
333,2004/08/24,12,310,29
334,2001/03/17,85,134,469
335,2006/03/11,15,328,315
336,2010/07/12,75,496,211
337,2006/08/01,10,483,313
338,2011/12/13,62,0,457
339,2013/11/01,14,166,179
340,2009/08/10,0,469,422
341,2015/06/01,46,460,421
342,2017/11/07,83,425,155
343,2009/08/01,79,263,8
344,2010/12/22,19,48,369
345,2007/12/07,7,426,466
346,2002/02/01,33,260,277
347,2000/05/24,22,464,91
348,2016/11/09,98,55,330
349,2015/08/10,12,0,441
350,2012/08/15,35,116,100
351,2012/05/08,32,331,43
352,2007/12/04,68,496,87
353,2016/07/21,73,156,355
354,2016/03/03,5,1,458
355,2008/08/08,68,128,333
356,2005/07/13,65,405,415
357,2001/01/27,82,298,132
358,2004/06/13,48,173,184
359,2017/06/08,32,199,48
360,2012/02/09,43,437,468
361,2003/06/03,94,495,118
362,2000/11/21,22,252,400
363,2014/10/16,56,248,153
364,2000/11/05,73,209,453
365,2014/01/19,20,444,330
366,2012/08/08,53,325,179
367,2011/11/29,28,358,363
368,2002/02/10,55,428,216
369,2014/03/20,83,462,403
370,2017/04/18,19,355,147
371,2003/04/25,49,277,94
372,2014/06/13,31,212,271
373,2004/03/07,68,424,53
374,2015/02/28,77,253,280
375,2001/08/01,7,101,454
376,2003/04/16,95,292,201
377,2007/06/14,77,384,391
378,2017/06/25,67,175,441
379,2015/09/28,54,441,56
380,2001/09/10,84,476,305
381,2007/07/08,79,143,146
382,2007/02/07,89,128,383
383,2002/03/19,76,66,246
384,2009/10/30,64,228,417
385,2012/03/01,51,173,363
386,2012/06/16,37,123,115
387,2003/08/08,20,53,109
388,2017/06/18,25,162,206
389,2013/08/02,36,15,184
390,2003/05/02,95,154,410
391,2016/04/17,39,33,353
392,2004/05/24,31,360,441
393,2004/08/01,21,133,424
394,2004/09/19,43,470,8
395,2013/06/23,0,291,55
396,2005/10/29,30,216,486
397,2002/06/29,30,428,114
398,2010/06/18,99,381,303
399,2005/08/18,63,69,364
400,2000/08/21,98,320,62
401,2000/07/08,35,266,45
402,2009/05/07,78,27,83
403,2009/08/28,44,337,407
404,2016/11/26,1,94,5
405,2014/01/18,93,210,156
406,2004/05/23,20,167,312
407,2009/08/17,3,215,374
408,2009/06/18,23,238,410
409,2009/05/27,62,217,71
410,2008/08/08,50,76,96
411,2011/12/16,99,271,494
412,2000/09/04,74,224,221
413,2016/11/18,20,232,46
414,2003/04/04,39,200,408
415,2017/05/21,96,340,254
416,2015/08/15,31,52,299
417,2014/12/31,96,301,187
418,2001/01/18,39,277,83
419,2004/12/18,27,143,11
420,2006/04/28,9,110,62
421,2016/05/16,91,434,347
422,2014/01/21,27,420,36
423,2017/02/16,9,211,208
424,2014/07/02,7,162,162
425,2010/09/30,96,9,146
426,2005/09/15,77,437,290
427,2011/05/23,21,443,334
428,2003/11/14,93,133,396
429,2009/06/28,50,31,90
430,2015/09/27,86,158,462
431,2012/03/13,25,296,471
432,2017/05/21,97,415,380
433,2015/01/14,69,457,163
434,2012/10/20,6,268,386
435,2000/08/31,97,384,241
436,2015/06/10,14,340,207
437,2005/01/17,16,350,491
438,2012/05/19,53,217,306
439,2009/08/09,4,325,15
440,2005/04/02,83,284,132
441,2008/11/10,50,108,6
442,2005/01/19,55,69,94
443,2009/07/25,0,20,286
444,2005/12/12,24,107,377
445,2008/10/26,64,68,146
446,2017/08/19,91,210,212
447,2016/11/26,2,423,400
448,2012/08/28,1,486,194
449,2000/02/18,36,162,194
450,2008/05/23,18,461,413
451,2008/12/25,64,89,302
452,2013/05/25,25,493,399
453,2016/12/27,30,19,406
454,2006/09/30,16,495,471
455,2003/04/02,41,197,364
456,2014/04/30,19,143,120
457,2000/07/02,65,135,163
458,2004/09/13,60,77,123
459,2012/11/22,47,23,490
460,2017/12/12,85,362,79
461,2008/03/05,93,276,122
462,2010/12/17,35,324,243
463,2008/03/06,69,363,256
464,2017/04/17,88,1,215
465,2017/12/17,89,285,453
466,2014/01/22,36,66,272
467,2004/04/20,89,72,313
468,2002/08/19,96,217,374
469,2013/10/08,14,96,138
470,2011/05/02,80,325,3
471,2012/03/01,66,255,46
472,2003/12/28,31,421,90
473,2000/06/18,84,394,429
474,2013/12/03,61,323,226
475,2012/06/04,22,238,151
476,2007/02/10,17,426,262
477,2001/10/03,26,214,225
478,2003/11/10,21,193,483
479,2012/12/06,87,414,371
480,2011/10/07,12,356,129
481,2001/07/25,18,362,378
482,2015/01/07,67,57,334
483,2013/08/01,97,238,427
484,2001/12/16,92,327,296
485,2014/12/25,59,382,204
486,2014/06/05,68,275,262
487,2002/05/07,85,479,134
488,2009/03/12,46,440,303
489,2017/03/02,65,32,468
490,2017/06/28,53,238,427
491,2017/06/19,73,26,64
492,2009/11/22,36,130,347
493,2004/10/05,23,298,25
494,2005/08/21,38,108,451
495,2004/02/06,81,498,194
496,2010/02/16,94,186,235
497,2015/10/17,65,444,234
498,2003/07/14,4,114,352
499,2001/11/27,47,128,35
500,2007/01/21,41,377,57
501,2001/09/23,86,356,348
502,2003/06/14,40,133,159
503,2016/06/10,76,113,3
504,2000/07/06,22,65,209
505,2003/06/28,5,241,120
506,2016/03/22,57,143,277
507,2001/08/02,37,368,458
508,2000/02/17,98,399,0
509,2002/11/19,95,14,192
510,2003/12/21,33,49,440
511,2003/09/13,22,357,12
512,2017/04/04,98,428,249
513,2009/09/07,78,280,408
514,2002/03/30,22,467,386
515,2001/11/19,31,480,153
516,2015/06/22,91,29,50
517,2000/02/12,91,323,74
518,2006/11/30,96,80,159
519,2008/06/23,1,77,209
520,2015/09/27,5,67,126
521,2001/04/03,79,46,149
522,2002/07/11,84,112,293
523,2002/12/31,44,478,76
524,2000/08/01,95,193,27
525,2009/02/25,35,207,404
526,2004/05/06,14,400,82
527,2008/12/06,86,197,42
528,2005/11/08,8,402,243
529,2010/08/01,27,169,46
530,2010/03/31,61,130,199
531,2003/10/04,57,104,122
532,2004/08/15,45,107,86
533,2009/02/26,57,339,458
534,2013/08/31,57,371,310
535,2009/08/15,51,199,129
536,2015/12/16,97,464,153
537,2011/09/19,49,335,375
538,2004/10/07,23,196,59
539,2013/05/03,44,298,111
540,2006/01/10,54,232,398
541,2005/06/22,27,20,127
542,2009/08/20,94,138,481
543,2015/01/29,9,173,387
544,2000/08/29,36,376,106
545,2006/12/27,46,40,387
546,2014/12/30,6,350,4
547,2010/01/16,93,74,258
548,2012/02/16,13,29,156
549,2004/02/06,37,339,48
550,2005/09/28,31,118,499
551,2011/02/26,86,387,42
552,2002/02/10,60,322,422
553,2008/03/30,80,311,341
554,2011/05/08,49,383,6
555,2004/05/29,40,251,398
556,2015/08/28,61,96,31
557,2012/12/24,82,134,270
558,2012/02/26,12,422,44
559,2002/11/23,47,464,327
560,2002/10/04,61,266,216
561,2003/05/26,63,16,122
562,2007/03/17,28,268,320
563,2012/04/16,96,164,79
564,2008/10/19,1,442,382
565,2009/05/19,63,368,359
566,2009/07/07,33,454,39
567,2001/11/12,83,214,445
568,2001/12/12,75,462,317
569,2006/12/21,23,322,441
570,2011/06/08,46,470,47
571,2017/07/25,84,192,293
572,2011/02/07,86,272,93
573,2006/11/16,17,184,14
574,2010/10/31,13,272,195
575,2000/01/30,93,444,459
576,2012/06/24,65,443,475
577,2003/02/28,95,390,185
578,2001/07/05,27,58,37
579,2016/08/13,8,417,491
580,2012/10/18,35,397,483
581,2006/11/06,62,189,293
582,2007/08/15,55,158,121
583,2009/10/17,48,402,137
584,2001/05/24,2,260,42
585,2005/08/27,75,89,149
586,2012/03/17,19,323,253
587,2015/10/12,32,203,425
588,2013/11/05,59,285,224
589,2003/04/29,64,216,57
590,2017/04/05,96,353,48
591,2003/05/31,45,0,218
592,2007/12/14,82,348,250
593,2002/11/16,90,197,270
594,2012/12/12,88,406,492
595,2011/03/28,79,100,186
596,2017/06/03,45,435,476
597,2007/01/08,19,54,144
598,2009/06/23,50,486,362
599,2000/04/14,3,376,410
600,2006/10/19,21,323,362
601,2001/06/10,32,492,107
602,2000/07/26,83,417,389
603,2001/08/26,20,234,421
604,2017/02/04,66,195,289
605,2001/05/27,62,406,143
606,2003/12/02,65,136,489
607,2015/05/26,45,324,73
608,2013/07/12,62,413,437
609,2002/12/17,68,142,314
610,2007/02/11,91,168,152
611,2006/09/25,64,103,203
612,2016/03/16,5,459,375
613,2010/02/25,86,172,446
614,2007/11/11,93,19,366
615,2007/06/21,47,248,49
616,2012/07/20,44,329,135
617,2004/02/16,74,298,365
618,2014/03/23,79,469,323
619,2004/11/03,93,215,162
620,2013/12/09,52,106,18
621,2009/01/07,88,355,58
622,2007/07/07,9,321,26
623,2007/06/02,56,24,431
624,2006/04/18,39,418,420
625,2017/10/13,16,125,58
626,2002/09/10,74,178,411
627,2002/08/12,51,205,102
628,2007/05/22,73,155,234
629,2015/06/24,78,291,253
630,2008/05/25,16,243,320
631,2005/02/19,60,127,373
632,2014/07/01,59,24,303
633,2004/01/08,12,80,220
634,2013/05/31,6,493,107
635,2000/08/28,41,25,63
636,2006/09/12,69,285,97
637,2002/01/31,62,402,341
638,2008/03/30,27,340,364
639,2011/12/19,98,495,68
640,2015/03/06,70,271,163
641,2005/05/26,51,377,244
642,2013/05/31,68,86,178
643,2000/03/14,52,201,367
644,2017/08/03,86,157,464
645,2004/10/02,28,226,242
646,2003/03/02,24,420,114
647,2011/09/24,58,271,411
648,2005/07/12,73,5,17
649,2011/02/16,98,49,268
650,2001/06/12,8,484,380
651,2016/08/05,22,356,124
652,2009/08/23,93,89,361
653,2014/08/14,91,196,32
654,2008/02/09,92,210,31
655,2012/03/19,55,379,125
656,2017/11/03,72,331,147
657,2014/12/24,1,126,225
658,2016/03/30,18,291,256
659,2007/06/10,71,53,236
660,2016/11/07,16,174,140
661,2012/05/22,31,338,33
662,2014/06/20,37,182,185
663,2016/03/29,97,310,58
664,2007/03/13,64,47,481
665,2003/10/22,98,270,101
666,2012/03/22,74,422,295
667,2012/01/25,63,91,122
668,2003/02/27,68,498,306
669,2010/11/13,52,429,282
670,2013/02/27,91,282,275
671,2008/11/27,11,255,233
672,2015/02/14,15,491,471
673,2014/07/31,77,205,89
674,2009/02/15,82,149,243
675,2016/04/20,61,160,90
676,2010/07/24,15,490,485
677,2003/04/25,41,282,6
678,2005/08/06,45,3,160
679,2009/08/09,93,246,107
680,2010/10/17,67,212,419
681,2000/12/13,82,474,467
682,2017/11/17,87,159,3
683,2012/12/27,48,348,304
684,2013/03/26,2,68,268
685,2004/08/28,57,360,349
686,2010/05/13,72,176,327
687,2003/12/20,71,183,489
688,2003/05/26,60,151,230
689,2017/07/13,76,110,99
690,2004/02/14,76,433,316
691,2004/07/13,81,406,467
692,2017/03/15,82,141,320
693,2000/06/29,92,195,177
694,2009/10/03,19,265,285
695,2010/03/14,19,196,428
696,2007/05/07,13,410,180
697,2007/08/04,30,142,478
698,2016/10/15,24,60,185
699,2003/04/16,53,370,83
700,2006/02/10,91,475,227
701,2005/10/23,33,325,43
702,2011/07/29,68,316,28
703,2014/10/27,13,447,280
704,2013/07/12,2,62,134
705,2014/07/16,33,208,161
706,2011/07/17,66,370,474
707,2011/05/09,46,347,162
708,2013/04/17,71,398,118
709,2003/12/31,56,76,310
710,2001/01/28,4,295,229
711,2014/06/14,22,249,64
712,2005/04/09,71,486,390
713,2012/03/04,8,1,373
714,2009/04/08,52,308,177
715,2009/07/06,11,305,138
716,2001/08/13,3,346,228
717,2007/02/22,73,478,473
718,2014/02/11,6,167,226
719,2013/12/19,15,215,51
720,2000/02/17,83,162,150
721,2013/11/13,94,455,482
722,2016/01/15,3,68,319
723,2007/03/17,98,18,136
724,2006/10/31,61,299,80
725,2003/09/08,58,218,49
726,2011/04/04,34,186,127
727,2007/04/11,94,311,316
728,2004/06/07,85,76,67
729,2014/08/06,90,384,186
730,2015/09/27,7,40,379
731,2012/04/09,60,245,109
732,2009/01/27,81,166,105
733,2001/07/09,32,360,448
734,2016/07/16,23,292,368
735,2002/04/16,16,71,197
736,2009/06/17,58,65,211
737,2013/12/04,72,464,429
738,2009/08/01,12,392,76
739,2015/01/01,45,317,480
740,2015/05/18,67,478,332
741,2000/05/08,10,333,45
742,2013/03/07,92,352,80
743,2008/04/12,27,232,163
744,2015/08/10,96,459,366
745,2015/07/02,73,58,71
746,2005/09/24,34,142,98
747,2009/11/26,90,314,349
748,2010/04/22,71,283,352
749,2007/02/12,84,161,498
750,2014/11/03,42,284,243
751,2008/12/25,60,223,198
752,2015/05/15,18,164,19
753,2004/09/13,70,411,180
754,2016/05/08,95,109,492
755,2003/07/30,77,15,407
756,2005/08/30,83,180,112
757,2010/01/10,32,464,184
758,2003/06/19,99,15,104
759,2009/04/16,25,259,202
760,2013/10/28,38,305,491
761,2012/01/17,84,64,226
762,2003/09/11,0,48,430
763,2007/07/26,64,444,169
764,2017/02/02,39,377,232
765,2005/10/22,46,153,440
766,2006/01/10,15,105,298
767,2000/06/29,68,451,435
768,2004/09/30,1,71,84
769,2009/03/15,2,111,445
770,2007/10/08,48,27,112
771,2001/01/12,67,108,188
772,2006/11/18,87,92,343
773,2001/12/24,19,211,56
774,2004/09/17,2,15,438
775,2017/02/27,48,419,295
776,2016/07/25,60,256,246
777,2017/02/15,12,266,117
778,2017/08/18,38,285,5
779,2007/05/15,30,163,446
780,2002/03/17,98,439,125
781,2001/11/16,53,419,386
782,2008/12/22,87,213,463
783,2004/04/25,86,104,463
784,2010/02/03,61,421,205
785,2008/09/23,5,345,217
786,2011/09/18,54,90,312
787,2011/07/20,24,320,171
788,2006/08/20,0,299,417
789,2001/03/12,64,331,463
790,2013/09/19,54,362,495
791,2012/07/14,53,482,165
792,2005/08/05,49,301,39
793,2005/01/21,56,427,25
794,2010/02/24,79,114,205
795,2000/10/06,28,311,15
796,2014/06/26,57,214,383
797,2009/02/13,91,400,255
798,2013/02/12,2,443,43
799,2000/07/20,32,148,178
800,2007/01/25,60,436,17
801,2008/04/07,78,364,277
802,2008/09/23,29,479,35
803,2014/01/25,47,11,9
804,2003/05/19,50,414,339
805,2016/09/19,14,204,423
806,2008/01/11,98,314,127
807,2001/07/04,18,411,153
808,2010/01/14,15,447,439
809,2015/10/26,34,279,378
810,2009/07/25,99,478,407
811,2006/12/16,23,140,184
812,2014/08/04,66,390,211
813,2015/02/08,97,391,185
814,2013/11/22,98,360,73
815,2015/03/04,96,232,217
816,2006/06/27,60,466,163
817,2004/07/19,98,281,159
818,2012/02/27,34,77,90
819,2016/03/28,76,410,385
820,2001/11/10,29,119,215
821,2000/06/21,30,325,81
822,2007/04/25,62,290,385
823,2014/06/16,89,121,490
824,2005/09/11,5,124,420
825,2013/05/30,4,135,488
826,2016/03/06,43,97,342
827,2000/12/24,29,322,278
828,2000/09/09,22,363,259
829,2005/04/16,10,9,175
830,2008/01/26,97,279,47
831,2017/12/26,44,468,23
832,2008/01/02,26,24,8
833,2006/02/11,13,435,260
834,2014/04/20,76,352,257
835,2007/08/29,95,191,123
836,2000/05/09,77,450,263
837,2009/07/28,48,110,289
838,2017/04/28,39,407,378
839,2014/12/01,29,106,465
840,2012/05/22,26,478,20
841,2017/11/27,62,139,159
842,2007/02/01,98,467,327
843,2006/06/28,20,433,296
844,2001/08/09,81,197,285
845,2011/03/11,32,293,152
846,2005/10/27,23,364,498
847,2004/06/10,35,152,77
848,2012/09/21,54,277,33
849,2000/10/31,55,475,379
850,2015/08/15,39,104,103
851,2004/06/18,88,327,204
852,2009/08/14,94,377,10
853,2013/07/03,16,132,435
854,2016/12/07,32,151,398
855,2002/01/02,94,393,53
856,2009/09/20,64,218,290
857,2005/08/25,50,190,27
858,2005/05/28,69,149,230
859,2007/06/24,79,329,71
860,2009/10/04,94,155,392
861,2007/11/26,52,204,314
862,2005/08/24,63,435,257
863,2005/09/25,94,409,162
864,2007/03/24,80,139,327
865,2012/06/05,95,85,310
866,2007/12/19,0,310,57
867,2006/11/21,79,394,232
868,2011/12/14,80,78,160
869,2010/03/19,9,315,7
870,2014/05/25,86,248,384
871,2013/05/21,85,282,402
872,2006/12/05,53,444,194
873,2015/07/09,57,345,476
874,2006/06/01,83,74,22
875,2016/08/18,86,366,370
876,2017/10/24,19,134,168
877,2009/01/20,77,478,83
878,2014/01/08,13,52,462
879,2008/05/13,75,49,127
880,2003/07/10,88,468,148
881,2010/02/02,65,16,216
882,2002/02/22,14,353,95
883,2006/04/20,1,92,237
884,2012/12/18,51,470,417
885,2016/06/10,8,358,29
886,2007/05/04,88,329,493
887,2008/11/11,92,120,489
888,2014/03/10,34,408,308
889,2005/08/09,38,403,82
890,2010/03/18,13,234,204
891,2000/04/29,81,69,109
892,2000/05/14,79,314,113
893,2012/12/30,13,42,348
894,2016/12/20,82,52,450
895,2000/05/22,56,265,239
896,2012/12/14,33,313,50
897,2006/11/01,15,268,149
898,2003/05/30,58,149,424
899,2003/10/01,17,429,234
900,2000/05/14,50,77,41
901,2014/04/10,52,178,141
902,2017/10/30,46,463,133
903,2010/05/22,1,337,197
904,2012/05/09,16,489,277
905,2013/04/21,79,141,392
906,2014/11/13,62,481,292
907,2007/01/22,32,308,457
908,2009/07/08,53,99,424
909,2006/09/04,21,200,465
910,2016/05/04,45,435,296
911,2011/03/08,11,110,146
912,2006/11/27,77,378,304
913,2014/09/05,87,278,116
914,2016/01/05,35,435,489
915,2000/11/11,98,6,468
916,2015/03/22,11,406,404
917,2011/10/20,10,222,478
918,2002/06/22,49,397,323
919,2002/02/26,63,236,406
920,2008/08/21,97,136,495
921,2005/10/25,93,82,32
922,2015/02/04,82,320,289
923,2008/01/28,79,412,46
924,2007/08/14,75,205,491
925,2006/07/05,20,41,390
926,2010/12/26,78,183,486
927,2006/05/10,62,326,209
928,2006/11/05,78,62,462
929,2015/06/05,74,402,230
930,2011/02/25,9,134,434
931,2002/04/24,54,369,81
932,2009/01/23,24,451,499
933,2011/03/27,82,395,250
934,2008/07/06,44,343,44
935,2011/05/17,82,493,373
936,2014/01/29,54,465,184
937,2015/10/18,80,155,28
938,2007/01/27,50,310,168
939,2002/02/05,59,342,130
940,2008/11/27,7,459,280
941,2000/06/01,3,5,283
942,2005/02/27,50,30,329
943,2011/08/16,72,415,11
944,2001/02/20,94,491,93
945,2004/12/26,11,55,260
946,2009/05/11,41,370,162
947,2002/05/14,41,379,425
948,2016/08/27,27,118,1
949,2017/12/07,59,320,95
950,2005/04/03,92,237,352
951,2010/07/28,90,100,490
952,2013/11/22,67,492,259
953,2010/01/04,83,239,133
954,2016/02/10,69,111,425
955,2016/06/05,35,348,155
956,2006/05/12,70,306,417
957,2013/07/29,10,211,480
958,2001/06/20,73,375,68
959,2009/05/29,97,399,373
960,2008/05/04,51,407,371
961,2011/11/12,79,149,204
962,2011/04/02,43,3,470
963,2009/10/27,49,237,42
964,2009/08/12,54,380,46
965,2017/08/05,14,158,142
966,2007/05/30,8,280,370
967,2005/08/02,99,121,131
968,2014/04/05,55,153,296
969,2003/06/23,95,303,163
970,2006/03/07,91,380,163
971,2013/07/17,47,147,61
972,2011/09/18,56,430,348
973,2009/09/05,12,75,197
974,2010/03/05,21,334,220
975,2017/10/07,46,476,302
976,2007/07/26,7,59,146
977,2015/06/07,2,389,239
978,2003/01/17,61,14,182
979,2017/06/10,7,109,75
980,2012/08/01,50,37,154
981,2007/11/15,11,352,124
982,2014/11/20,56,471,331
983,2007/12/12,77,212,275
984,2000/01/27,44,475,75
985,2008/02/09,91,190,71
986,2012/10/15,97,268,87
987,2012/10/02,59,76,51
988,2006/08/23,25,230,369
989,2007/05/18,98,115,342
990,2011/11/25,12,296,213
991,2010/04/19,93,68,354
992,2008/02/25,52,246,189
993,2011/05/30,15,455,221
994,2003/07/26,6,374,485
995,2011/07/16,80,388,61
996,2000/05/15,83,364,13
997,2003/06/01,34,395,59
998,2014/04/17,57,54,358
999,2014/07/18,33,469,163
1000,2013/09/28,53,335,269
1001,2014/08/31,12,69,182
1002,2007/01/09,26,71,77
1003,2008/03/07,31,53,105
1004,2005/10/29,69,364,314
1005,2014/06/20,84,184,170
1006,2007/05/15,58,215,414
1007,2001/11/08,8,5,118
1008,2003/11/17,87,378,495
1009,2013/05/23,3,214,354
1010,2008/06/23,47,155,52
1011,2005/03/02,3,343,226
1012,2012/11/16,49,379,115
1013,2007/04/03,38,59,240
1014,2016/06/13,74,161,413
1015,2011/05/19,74,412,485
1016,2009/10/07,93,197,44
1017,2005/05/27,22,200,103
1018,2007/07/23,79,425,376
1019,2002/06/09,51,348,396
1020,2001/06/06,40,78,224
1021,2006/01/24,13,332,143
1022,2000/02/21,14,346,388
1023,2015/07/16,58,361,13
1024,2002/05/15,44,57,311
1025,2000/05/18,82,99,50
1026,2006/10/05,14,70,431
1027,2016/12/26,40,340,402
1028,2010/09/29,4,316,457
1029,2016/10/26,75,403,339
1030,2008/04/26,16,181,329
1031,2002/10/08,31,1,213
1032,2007/01/01,70,456,110
1033,2006/07/02,37,474,149
1034,2004/09/10,39,355,365
1035,2001/11/29,76,183,3
1036,2008/05/07,78,337,180
1037,2003/08/28,27,219,123
1038,2016/12/15,56,74,411
1039,2009/11/19,70,278,216
1040,2011/09/20,35,348,346
1041,2006/02/17,95,473,413
1042,2008/03/01,94,358,333
1043,2004/12/04,19,469,247
1044,2013/04/20,75,395,477
1045,2012/11/07,87,307,112
1046,2000/06/26,98,9,133
1047,2010/02/21,54,121,281
1048,2000/01/19,18,122,302
1049,2013/05/19,96,51,0
1050,2017/01/25,79,72,479
1051,2006/02/12,24,444,387
1052,2009/11/03,99,221,149
1053,2005/06/26,95,184,131
1054,2002/12/10,13,401,10
1055,2000/01/04,43,127,102
1056,2017/07/19,95,239,429
1057,2001/03/17,39,17,230
1058,2000/06/27,0,107,103
1059,2004/01/05,32,249,444
1060,2016/03/02,4,6,381
1061,2004/04/02,64,408,374
1062,2011/12/29,25,82,367
1063,2007/01/01,27,410,104
1064,2014/12/05,94,77,132
1065,2007/12/22,80,28,112
1066,2009/05/05,54,128,179
1067,2010/07/29,9,185,46
1068,2001/04/04,42,465,394
1069,2012/08/12,48,68,440
1070,2016/11/28,72,302,246
1071,2015/12/02,98,23,351
1072,2014/11/15,54,186,201
1073,2007/08/18,74,490,351
1074,2004/01/07,91,457,412
1075,2001/01/12,24,311,290
1076,2005/08/19,62,243,28
1077,2015/03/12,46,374,483
1078,2014/02/12,12,382,256
1079,2017/06/20,84,157,215
1080,2000/11/20,70,442,380
1081,2002/03/27,64,405,212
1082,2012/03/31,56,356,473
1083,2004/10/16,2,336,199
1084,2014/07/02,37,335,30
1085,2014/12/08,68,219,424
1086,2003/08/05,34,101,351
1087,2003/07/15,84,24,444
1088,2003/12/13,47,44,88
1089,2016/10/18,3,125,454
1090,2009/02/28,48,497,250
1091,2012/01/05,33,81,483
1092,2016/04/20,48,448,374
1093,2007/11/24,19,436,270
1094,2003/09/03,23,47,311
1095,2005/11/04,74,334,440
1096,2002/01/28,59,333,442
1097,2008/11/24,9,85,225
1098,2000/05/29,50,123,61
1099,2013/10/19,79,55,196
1100,2001/08/16,42,77,458
1101,2001/02/26,95,359,296
1102,2017/03/26,90,266,180
1103,2015/04/30,74,369,92
1104,2003/03/02,53,230,220
1105,2008/04/29,39,45,413
1106,2012/08/03,10,154,339
1107,2008/01/24,45,89,483
1108,2016/06/14,23,447,20
1109,2007/01/25,93,354,2
1110,2012/11/19,87,388,286
1111,2005/06/06,66,158,415
1112,2017/07/27,54,141,463
1113,2011/02/08,99,416,76
1114,2003/06/17,55,81,110
1115,2007/05/14,21,284,441
1116,2016/09/08,43,471,147
1117,2000/09/07,46,371,408
1118,2016/08/06,12,326,322
1119,2001/09/04,71,226,176
1120,2008/07/03,86,396,172
1121,2011/11/21,81,463,342
1122,2015/03/13,65,352,35
1123,2008/09/19,15,421,169
1124,2014/08/18,8,220,156
1125,2013/12/01,12,286,96
1126,2010/10/25,43,494,182
1127,2015/04/28,87,235,107
1128,2006/05/21,66,32,481
1129,2009/07/10,5,116,419
1130,2016/06/17,36,414,97
1131,2005/09/25,22,394,422
1132,2004/12/15,74,295,74
1133,2014/09/07,21,225,84
1134,2003/04/19,13,448,149
1135,2016/03/05,34,350,227
1136,2009/01/29,96,150,265
1137,2001/06/04,47,87,298
1138,2008/03/20,98,388,471
1139,2001/01/24,31,348,385
1140,2004/03/07,73,145,440
1141,2009/01/26,22,249,481
1142,2007/01/30,59,379,22
1143,2002/05/13,25,422,160
1144,2017/10/03,98,48,422
1145,2010/03/29,72,398,163
1146,2000/06/18,16,191,109
1147,2011/07/13,68,288,72
1148,2009/05/09,48,248,29
1149,2015/03/31,44,73,411
1150,2002/09/28,44,197,448
1151,2012/10/15,89,379,193
1152,2015/05/31,32,439,229
1153,2006/06/26,47,344,109
1154,2004/09/30,0,13,323
1155,2008/08/13,81,1,272
1156,2014/03/29,3,8,186
1157,2015/06/14,56,278,491
1158,2001/12/22,72,49,52
1159,2005/05/22,48,344,30
1160,2002/07/10,70,494,133
1161,2016/01/07,40,328,396
1162,2009/04/04,47,307,144
1163,2014/11/19,78,404,207
1164,2014/02/19,65,333,194
1165,2006/10/03,94,364,119
1166,2016/01/31,46,247,92
1167,2008/10/23,16,128,215
1168,2016/06/28,22,481,277
1169,2004/01/04,73,278,259
1170,2003/07/06,80,275,455
1171,2012/08/28,17,34,245
1172,2017/03/08,42,438,160
1173,2001/02/04,65,422,103
1174,2003/07/26,65,404,417
1175,2016/04/27,92,7,335
1176,2010/12/29,45,425,230
1177,2009/06/10,21,170,66
1178,2015/10/16,86,442,251
1179,2004/09/01,92,101,385
1180,2012/01/15,21,351,92
1181,2012/07/05,56,386,375
1182,2012/06/22,78,132,65
1183,2002/07/14,69,97,272
1184,2000/01/06,46,442,338
1185,2001/10/25,82,226,352
1186,2007/03/28,33,438,318
1187,2008/07/13,68,202,244
1188,2010/04/02,18,67,185
1189,2002/02/22,35,56,345
1190,2002/02/20,63,370,180
1191,2013/06/30,26,120,416
1192,2000/01/31,13,359,177
1193,2000/01/25,2,327,125
1194,2007/06/05,36,461,365
1195,2012/01/12,42,67,353
1196,2003/06/21,0,158,87
1197,2005/08/10,78,42,298
1198,2016/02/10,80,499,414
1199,2011/01/15,22,78,13
1200,2012/10/13,88,487,7
1201,2001/02/12,34,480,276
1202,2001/04/09,75,491,320
1203,2013/03/08,5,105,242
1204,2015/05/09,83,255,90
1205,2014/01/27,63,453,101
1206,2004/06/27,97,273,342
1207,2007/07/05,12,284,143
1208,2002/01/26,44,294,135
1209,2007/06/02,3,360,165
1210,2007/10/23,14,6,400
1211,2003/07/01,68,150,452
1212,2000/07/31,18,109,80
1213,2004/08/18,79,428,453
1214,2010/09/28,41,381,44
1215,2008/12/23,61,483,285
1216,2000/12/27,36,111,112
1217,2008/11/15,89,43,3
1218,2014/02/09,19,197,227
1219,2004/06/17,3,443,370
1220,2017/03/07,12,141,325
1221,2008/04/13,17,304,3
1222,2001/10/25,20,424,471
1223,2002/11/04,64,361,91
1224,2013/08/13,76,455,42
1225,2017/02/24,58,461,313
1226,2003/06/30,43,360,221
1227,2006/03/22,6,18,364
1228,2011/06/25,98,257,1
1229,2007/09/01,80,65,369
1230,2006/05/13,84,53,99
1231,2006/11/11,84,36,497
1232,2001/04/07,50,488,417
1233,2006/05/18,38,175,32
1234,2012/05/08,24,180,397
1235,2016/05/26,52,76,161
1236,2001/06/26,55,19,31
1237,2001/06/20,96,219,195
1238,2014/02/27,7,452,474
1239,2014/09/28,45,25,421
1240,2009/04/16,15,198,452
1241,2006/08/03,41,153,235
1242,2007/04/02,43,432,179
1243,2017/09/09,37,430,429
1244,2014/07/23,50,359,176
1245,2004/03/21,32,41,164
1246,2009/03/20,10,291,298
1247,2004/04/14,54,241,199
1248,2014/02/24,82,324,182
1249,2008/07/28,10,286,85
1250,2009/05/02,47,89,319
1251,2007/09/17,28,8,294
1252,2017/01/09,22,383,165
1253,2013/11/20,53,134,444
1254,2005/06/07,86,167,432
1255,2006/11/08,11,294,156
1256,2009/07/23,58,135,24
1257,2006/05/29,48,340,334
1258,2017/01/08,71,468,479
1259,2012/12/27,88,248,177
1260,2016/12/18,20,280,315
1261,2015/06/21,57,459,467
1262,2010/04/29,14,163,142
1263,2007/05/01,59,454,278
1264,2011/09/27,71,396,232
1265,2010/05/21,16,277,64
1266,2000/11/01,91,274,348
1267,2000/08/24,37,359,310
1268,2011/02/28,55,193,422
1269,2009/12/12,31,270,388
1270,2013/02/07,38,95,33
1271,2008/11/11,50,434,380
1272,2008/05/01,13,461,454
1273,2006/04/01,49,135,153
1274,2007/10/10,58,403,61
1275,2006/06/22,3,107,67
1276,2014/03/30,66,243,416
1277,2009/11/25,49,96,50
1278,2011/03/06,53,126,326
1279,2000/08/12,79,491,27
1280,2007/10/13,31,171,433
1281,2003/04/12,57,210,291
1282,2014/05/02,24,13,261
1283,2011/03/28,92,77,496
1284,2012/06/19,84,315,226
1285,2016/04/19,28,366,9
1286,2002/10/24,62,356,253
1287,2005/06/21,94,12,246
1288,2006/11/16,92,21,66
1289,2000/09/19,78,329,353
1290,2007/09/23,29,205,344
1291,2008/05/02,34,163,360
1292,2007/04/11,82,383,382
1293,2014/02/04,80,323,269
1294,2016/07/03,89,451,379
1295,2016/03/13,11,80,433
1296,2004/05/27,4,255,207
1297,2000/03/08,61,433,208
1298,2006/05/10,55,374,478
1299,2009/01/03,62,434,424
1300,2015/04/15,86,479,69
1301,2006/12/30,29,239,344
1302,2000/10/15,55,412,47
1303,2003/05/25,68,147,62
1304,2011/01/14,31,371,336
1305,2011/09/26,91,315,214
1306,2003/12/07,75,134,70
1307,2010/03/22,29,376,306
1308,2015/12/16,1,167,274
1309,2009/05/27,71,221,412
1310,2005/02/11,37,162,361
1311,2008/07/04,93,350,185
1312,2001/09/17,39,162,461
1313,2003/06/29,8,9,172
1314,2013/10/18,3,307,114
1315,2010/12/27,42,58,403
1316,2014/02/15,10,23,303
1317,2011/03/07,25,149,294
1318,2004/11/21,63,305,491
1319,2011/06/29,27,129,322
1320,2012/11/06,41,115,45
1321,2002/11/20,86,129,457
1322,2007/10/25,72,243,180
1323,2004/02/05,88,46,281
1324,2010/03/13,19,80,298
1325,2016/03/25,66,125,238
1326,2009/08/18,26,303,320
1327,2015/12/25,87,179,49
1328,2011/11/24,9,65,427
1329,2005/02/16,29,247,219
1330,2010/08/16,89,390,227
1331,2003/07/17,96,305,300
1332,2016/05/28,94,328,249
1333,2007/05/24,74,303,397
1334,2002/04/24,57,26,471
1335,2007/06/18,79,89,380
1336,2008/12/22,24,204,191
1337,2013/04/22,61,442,368
1338,2007/04/25,49,219,249
1339,2001/11/18,76,94,316
1340,2005/01/05,20,306,152
1341,2011/09/20,17,196,205
1342,2013/07/22,34,363,479
1343,2012/02/01,20,364,172
1344,2002/11/18,96,388,277
1345,2003/07/21,17,135,429
1346,2001/12/24,28,195,234
1347,2001/09/28,36,407,79
1348,2012/04/25,99,325,50
1349,2002/11/15,53,413,458
1350,2015/01/27,3,212,129
1351,2000/05/23,88,210,460
1352,2009/01/11,3,159,40
1353,2016/11/23,96,439,135
1354,2013/08/21,29,102,111
1355,2010/02/26,67,294,483
1356,2011/01/27,84,328,362
1357,2005/05/16,75,89,363
1358,2017/01/28,29,473,127
1359,2007/09/27,28,293,39
1360,2012/12/17,49,499,232
1361,2015/07/05,95,319,362
1362,2016/12/16,80,400,482
1363,2009/12/20,10,164,337
1364,2002/08/18,32,169,381
1365,2015/04/16,41,445,97
1366,2012/10/05,77,69,313
1367,2007/11/10,6,462,313
1368,2014/10/06,89,400,243
1369,2009/04/02,88,47,468
1370,2016/07/21,93,325,282
1371,2002/11/26,19,259,91
1372,2009/08/04,95,88,146
1373,2004/11/02,97,297,482
1374,2011/12/19,14,173,123
1375,2005/05/13,3,215,165
1376,2004/03/23,88,457,94
1377,2003/08/19,28,442,278
1378,2003/06/18,54,299,237
1379,2010/10/08,22,376,218
1380,2006/09/09,31,219,428
1381,2009/01/27,44,60,242
1382,2001/07/21,39,347,81
1383,2007/03/15,25,84,147
1384,2008/02/01,75,35,184
1385,2016/08/09,89,478,290
1386,2008/02/19,68,123,32
1387,2015/10/04,43,465,215
1388,2013/01/04,37,52,287
1389,2005/09/15,6,16,284
1390,2008/10/13,57,156,276
1391,2010/02/05,58,440,251
1392,2009/07/01,12,232,337
1393,2001/06/01,96,382,92
1394,2014/04/02,78,167,251
1395,2003/09/03,33,3,385
1396,2007/10/13,63,336,302
1397,2014/05/26,63,356,309
1398,2012/05/22,10,17,191
1399,2015/03/30,97,320,231
1400,2007/02/08,30,244,347
1401,2009/02/01,47,441,225
1402,2015/08/27,75,328,343
1403,2016/11/03,55,24,135
1404,2005/06/20,81,437,401
1405,2006/02/05,11,16,171
1406,2015/06/05,19,257,282
1407,2009/07/30,23,141,260
1408,2015/10/09,95,486,112
1409,2017/12/14,14,339,378
1410,2013/04/21,14,364,338
1411,2011/07/16,70,10,410
1412,2010/04/01,51,300,324
1413,2009/08/06,33,201,153
1414,2007/06/05,82,408,71
1415,2014/10/01,11,406,308
1416,2009/10/15,36,42,109
1417,2016/07/22,65,216,248
1418,2000/09/29,96,237,331
1419,2005/09/22,63,229,36
1420,2008/09/10,65,47,333
1421,2015/07/22,80,436,93
1422,2002/04/22,95,96,477
1423,2006/06/28,80,195,160
1424,2007/09/21,12,355,403
1425,2008/10/20,99,274,415
1426,2012/01/13,96,467,208
1427,2007/01/29,24,159,365
1428,2003/07/07,93,86,356
1429,2015/07/17,24,470,28
1430,2005/12/14,58,51,422
1431,2001/03/26,10,322,95
1432,2009/01/30,38,383,256
1433,2007/02/01,60,438,129
1434,2006/01/08,82,392,442
1435,2013/10/08,4,354,181
1436,2006/02/28,11,21,157
1437,2017/06/27,40,342,339
1438,2001/04/24,29,58,152
1439,2006/09/26,72,60,92
1440,2006/11/14,90,149,70
1441,2005/01/05,63,459,266
1442,2016/04/22,8,499,493
1443,2010/03/08,69,475,499
1444,2017/06/21,87,492,356
1445,2014/01/13,13,316,456
1446,2017/06/18,58,478,176
1447,2005/07/21,2,244,479
1448,2008/04/27,32,468,26
1449,2014/03/26,76,360,386
1450,2011/08/28,98,411,318
1451,2008/12/17,88,348,227
1452,2010/02/28,49,36,23
1453,2002/07/02,60,259,341
1454,2006/07/14,82,361,296
1455,2015/09/26,39,62,307
1456,2002/10/19,27,126,217
1457,2016/08/22,73,257,56
1458,2017/07/17,33,288,423
1459,2007/09/15,49,358,448
1460,2001/06/13,59,0,454
1461,2013/03/03,87,90,207
1462,2013/04/11,19,177,413
1463,2013/11/23,63,148,168
1464,2002/02/01,98,276,330
1465,2004/11/13,56,58,188
1466,2015/03/30,67,314,139
1467,2013/01/24,77,448,341
1468,2007/09/06,53,320,282
1469,2005/05/21,16,190,3
1470,2012/04/09,18,31,284
1471,2007/11/24,49,203,314
1472,2011/11/15,1,204,361
1473,2002/04/12,98,184,50
1474,2007/07/11,99,218,451
1475,2009/03/18,94,125,439
1476,2007/07/07,11,351,72
1477,2014/08/04,15,265,35
1478,2009/10/27,44,53,372
1479,2015/05/28,81,318,303
1480,2016/08/03,84,254,36
1481,2017/01/16,33,374,175
1482,2010/08/05,62,247,227
1483,2017/03/05,98,452,368
1484,2009/02/25,4,289,422
1485,2008/04/03,95,7,164
1486,2010/02/14,12,364,201
1487,2003/01/29,90,181,312
1488,2010/01/18,53,292,384
1489,2006/04/02,82,345,242
1490,2015/05/25,43,126,52
1491,2014/05/15,65,182,236
1492,2017/12/26,36,205,177
1493,2009/08/25,29,397,285
1494,2002/08/18,57,453,478
1495,2010/02/23,0,470,387
1496,2017/10/24,41,77,88
1497,2004/06/06,50,147,16
1498,2011/09/19,33,128,128
1499,2003/03/14,75,485,206
1500,2003/07/19,70,459,383
1501,2012/04/03,35,155,66
1502,2012/03/10,92,122,463
1503,2017/08/18,11,134,129
1504,2010/02/01,32,213,312
1505,2000/04/16,36,240,277
1506,2010/12/16,24,311,124
1507,2003/02/21,71,355,463
1508,2000/02/27,34,301,294
1509,2000/04/24,92,177,206
1510,2002/07/21,59,33,199
1511,2006/02/04,97,316,89
1512,2007/04/21,55,474,347
1513,2005/05/07,16,239,277
1514,2017/01/12,47,152,418
1515,2008/09/21,48,380,70
1516,2009/05/05,83,313,25
1517,2011/06/17,33,438,468
1518,2016/02/15,90,403,365
1519,2003/12/01,31,188,338
1520,2005/11/06,44,334,444
1521,2001/05/24,29,60,135
1522,2014/04/16,90,65,284
1523,2010/08/14,95,230,429
1524,2017/04/18,41,68,121
1525,2000/03/07,81,345,304
1526,2017/05/23,25,245,86
1527,2014/09/17,63,40,252
1528,2006/01/23,25,273,451
1529,2005/07/25,99,42,346
1530,2006/04/16,45,40,22
1531,2003/05/31,66,375,122
1532,2008/11/26,11,188,128
1533,2003/10/24,56,143,397
1534,2015/04/09,67,262,492
1535,2006/09/09,89,397,446
1536,2014/03/24,62,394,364
1537,2005/06/03,73,246,159
1538,2001/09/02,70,261,464
1539,2004/09/04,73,45,126
1540,2002/08/25,97,431,219
1541,2017/10/22,88,486,200
1542,2006/12/02,72,70,484
1543,2012/07/15,18,438,164
1544,2007/02/22,26,146,406
1545,2012/07/03,87,85,465
1546,2002/06/04,30,206,60
1547,2011/07/17,11,148,382
1548,2017/03/14,26,148,453
1549,2006/07/07,78,251,222
1550,2006/07/24,19,272,288
1551,2009/02/04,59,375,434
1552,2007/12/15,97,206,236
1553,2005/04/30,27,437,47
1554,2003/11/07,96,102,403
1555,2015/07/11,73,166,81
1556,2017/08/27,25,451,25
1557,2000/04/06,96,163,201
1558,2010/11/09,51,371,324
1559,2001/07/28,78,42,222
1560,2007/02/16,59,188,299
1561,2010/05/08,91,420,453
1562,2004/04/01,55,296,12
1563,2005/11/09,97,117,366
1564,2010/02/17,47,397,423
1565,2016/05/23,43,273,148
1566,2005/12/06,36,135,396
1567,2016/09/16,68,61,293
1568,2012/07/29,35,370,437
1569,2017/02/01,84,334,154
1570,2013/07/04,59,84,66
1571,2016/08/26,15,391,386
1572,2005/12/03,23,495,154
1573,2007/02/17,78,185,117
1574,2001/10/01,70,33,239
1575,2013/11/03,7,464,221
1576,2006/06/06,45,364,186
1577,2006/10/06,36,246,494
1578,2001/08/26,3,162,353
1579,2004/01/11,3,212,47
1580,2013/11/13,48,71,18
1581,2017/01/25,81,326,477
1582,2014/08/03,4,473,165
1583,2004/01/13,73,486,115
1584,2015/07/08,27,349,381
1585,2004/04/07,76,100,59
1586,2000/11/11,55,231,61
1587,2001/01/26,96,358,78
1588,2017/01/05,98,461,482
1589,2002/10/19,14,260,459
1590,2013/02/20,38,478,113
1591,2012/02/28,13,448,82
1592,2014/06/30,14,394,351
1593,2004/09/04,13,187,431
1594,2013/04/25,70,442,268
1595,2003/04/19,81,79,492
1596,2011/03/18,31,121,106
1597,2015/06/04,30,185,6
1598,2013/10/02,75,445,67
1599,2009/05/11,28,392,497
1600,2010/01/09,85,137,430
1601,2014/07/04,22,176,416
1602,2010/01/19,44,428,463
1603,2010/02/02,62,465,284
1604,2014/07/19,53,39,345
1605,2011/07/18,27,151,122
1606,2005/01/03,39,28,154
1607,2003/03/06,49,11,200
1608,2000/05/05,11,194,194
1609,2011/06/29,75,248,305
1610,2010/03/23,85,242,128
1611,2003/10/26,87,52,382
1612,2017/06/25,66,24,203
1613,2002/08/21,78,75,331
1614,2001/02/08,84,300,485
1615,2014/03/15,43,110,234
1616,2005/05/05,56,424,135
1617,2001/06/23,91,41,143
1618,2007/04/29,19,470,165
1619,2002/03/09,43,99,484
1620,2004/10/11,93,87,147
1621,2009/10/19,46,395,220
1622,2007/09/24,79,174,89
1623,2012/11/25,85,103,251
1624,2001/12/14,72,240,496
1625,2015/06/13,38,105,49
1626,2006/01/11,67,221,87
1627,2000/09/24,5,94,240
1628,2011/03/24,7,80,305
1629,2008/04/27,99,236,488
1630,2017/04/30,71,153,456
1631,2016/01/20,44,172,315
1632,2000/11/22,41,291,64
1633,2017/02/21,47,276,410
1634,2016/08/04,72,85,254
1635,2000/12/04,58,279,95
1636,2015/09/10,15,73,421
1637,2000/10/12,43,123,219
1638,2006/04/18,60,101,107
1639,2003/07/06,47,365,344
1640,2008/07/11,21,391,195
1641,2016/04/06,1,97,201
1642,2002/06/19,53,60,363
1643,2017/07/18,96,20,211
1644,2006/03/16,3,445,241
1645,2010/02/04,51,38,213
1646,2013/01/29,65,320,240
1647,2016/08/13,53,333,147
1648,2009/02/26,33,30,285
1649,2012/06/16,17,129,311
1650,2017/10/01,85,6,383
1651,2017/01/31,51,215,144
1652,2002/05/02,73,423,329
1653,2005/04/25,25,80,53
1654,2005/08/14,82,124,399
1655,2015/05/29,34,50,86
1656,2013/06/17,1,288,49
1657,2012/05/17,65,353,98
1658,2009/06/01,86,153,216
1659,2006/10/08,46,444,346
1660,2006/02/02,55,106,166
1661,2015/12/14,54,12,366
1662,2005/07/16,21,325,344
1663,2016/08/26,57,155,194
1664,2012/10/03,46,280,406
1665,2004/02/28,98,175,335
1666,2004/08/29,9,416,76
1667,2012/02/17,58,318,32
1668,2004/05/14,76,227,405
1669,2010/10/06,17,337,32
1670,2001/12/02,64,23,154
1671,2017/10/05,30,32,318
1672,2014/08/03,66,151,377
1673,2013/08/02,58,0,44
1674,2001/10/05,78,34,339
1675,2008/11/24,97,341,269
1676,2004/03/05,53,220,119
1677,2017/12/07,37,320,438
1678,2016/12/27,0,37,29
1679,2013/05/24,44,73,441
1680,2000/09/19,41,118,332
1681,2001/03/01,29,450,470
1682,2017/07/20,9,43,301
1683,2012/10/27,23,319,494
1684,2016/07/21,12,38,116
1685,2007/11/24,59,259,65
1686,2017/01/16,2,498,412
1687,2009/10/11,67,292,423
1688,2002/09/04,47,468,407
1689,2014/10/22,67,475,271
1690,2014/08/24,2,262,264
1691,2009/06/15,68,139,281
1692,2015/03/02,69,411,262
1693,2003/06/18,88,58,135
1694,2006/10/10,25,347,151
1695,2012/03/28,99,303,227
1696,2007/05/25,78,400,482
1697,2005/08/05,0,359,356
1698,2016/12/12,71,387,353
1699,2000/07/31,27,276,426
1700,2004/08/28,5,340,146
1701,2017/04/04,62,293,52
1702,2006/01/29,45,461,257
1703,2015/05/10,18,187,437
1704,2016/07/18,3,418,359
1705,2013/10/14,94,9,455
1706,2007/06/13,29,394,394
1707,2002/03/15,47,337,113
1708,2015/02/04,89,487,299
1709,2002/01/24,71,155,163
1710,2017/11/21,81,55,449
1711,2012/10/30,76,53,41
1712,2012/02/27,41,298,467
1713,2009/02/05,73,54,285
1714,2007/10/11,59,185,245
1715,2002/11/30,5,96,489
1716,2016/03/11,39,173,139
1717,2002/04/24,7,384,469
1718,2003/01/23,96,453,280
1719,2004/11/13,49,95,329
1720,2015/08/25,24,242,18
1721,2015/04/16,16,123,392
1722,2002/07/05,68,329,463
1723,2008/10/13,46,389,442
1724,2009/03/06,72,192,212
1725,2016/05/08,85,123,64
1726,2005/03/01,58,38,232
1727,2007/10/23,81,215,90
1728,2012/06/11,30,464,85
1729,2015/04/07,8,202,464
1730,2017/09/20,75,268,200
1731,2008/03/30,8,67,347
1732,2016/06/28,81,196,340
1733,2015/08/24,53,211,188
1734,2007/06/30,99,5,381
1735,2002/11/11,2,194,111
1736,2015/04/18,80,252,38
1737,2014/05/12,84,36,174
1738,2013/07/21,86,123,52
1739,2010/07/01,26,314,143
1740,2009/07/19,22,357,226
1741,2012/03/03,15,173,156
1742,2006/08/07,23,210,132
1743,2012/10/02,45,253,351
1744,2003/07/26,53,309,467
1745,2006/07/15,38,319,467
1746,2010/01/06,2,196,119
1747,2009/12/19,86,465,2
1748,2009/10/04,25,371,287
1749,2015/03/19,14,31,76
1750,2007/07/06,35,110,82
1751,2015/03/14,28,66,141
1752,2006/01/28,24,380,377
1753,2000/04/25,4,233,264
1754,2002/11/23,95,144,48
1755,2011/06/11,53,40,8
1756,2009/02/07,82,163,22
1757,2006/06/24,45,298,300
1758,2002/11/22,93,93,220
1759,2017/08/10,8,239,318
1760,2005/09/24,81,230,254
1761,2008/09/30,91,343,476
1762,2016/03/05,5,193,390
1763,2010/08/23,39,290,68
1764,2002/10/15,97,352,430
1765,2016/01/13,11,271,243
1766,2007/04/18,68,303,225
1767,2000/05/01,51,89,449
1768,2013/01/04,32,166,306
1769,2010/06/13,8,113,40
1770,2015/05/08,64,377,93
1771,2000/02/22,65,51,298
1772,2012/11/24,86,206,435
1773,2006/07/25,26,341,240
1774,2009/09/23,34,207,197
1775,2015/02/10,70,269,442
1776,2013/06/18,24,3,108
1777,2014/05/12,23,411,461
1778,2009/01/29,98,264,112
1779,2008/12/25,49,306,369
1780,2014/07/20,19,115,328
1781,2005/03/13,51,96,152
1782,2012/09/20,80,444,307
1783,2013/11/19,99,393,95
1784,2009/08/27,48,245,473
1785,2016/06/12,38,333,376
1786,2006/06/22,28,33,496
1787,2000/09/21,97,279,12
1788,2011/03/04,40,194,209
1789,2014/09/13,19,147,224
1790,2017/01/05,2,326,290
1791,2003/06/05,31,435,220
1792,2016/12/12,88,252,15
1793,2000/12/02,53,97,164
1794,2012/01/08,73,444,486
1795,2015/12/05,85,153,52
1796,2002/05/05,81,466,125
1797,2015/04/04,64,302,494
1798,2002/06/21,86,261,379
1799,2013/11/16,53,420,422
1800,2000/04/29,28,166,182
1801,2007/12/16,72,381,237
1802,2011/07/11,4,108,68
1803,2016/05/10,17,156,499
1804,2009/02/04,1,466,436
1805,2004/04/07,71,143,280
1806,2006/10/19,80,72,320
1807,2011/10/20,96,29,22
1808,2005/03/23,91,257,178
1809,2009/01/21,90,289,3
1810,2016/06/12,8,142,204
1811,2012/08/16,84,299,257
1812,2016/08/25,56,83,113
1813,2000/01/27,27,328,470
1814,2015/12/05,15,146,374
1815,2008/02/28,51,289,370
1816,2014/11/29,28,205,345
1817,2008/05/01,50,396,275
1818,2016/07/05,95,339,78
1819,2011/11/11,37,446,318
1820,2004/11/20,2,367,84
1821,2012/01/11,19,318,140
1822,2010/06/20,44,188,475
1823,2017/11/07,83,100,328
1824,2010/01/16,31,277,180
1825,2000/09/27,81,74,244
1826,2003/03/01,70,372,42
1827,2016/12/16,1,176,405
1828,2006/07/09,29,328,64
1829,2008/04/18,48,434,85
1830,2008/06/19,13,12,24
1831,2011/12/04,39,259,344
1832,2016/01/14,92,418,359
1833,2013/12/12,85,226,487
1834,2003/10/09,77,360,434
1835,2016/08/23,54,293,109
1836,2006/07/15,53,385,85
1837,2016/03/08,3,111,356
1838,2013/05/12,71,379,215
1839,2006/09/23,94,386,337
1840,2017/12/09,17,69,364
1841,2007/02/05,91,429,36
1842,2016/11/17,96,324,87
1843,2002/11/09,32,360,95
1844,2011/02/11,14,46,415
1845,2015/12/25,18,457,497
1846,2010/11/19,0,398,88
1847,2014/09/19,60,160,103
1848,2011/03/11,87,488,58
1849,2005/10/28,57,228,303
1850,2014/04/12,7,417,275
1851,2016/06/04,98,457,161
1852,2006/01/25,3,292,344
1853,2014/03/16,71,199,63
1854,2010/01/17,40,280,367
1855,2016/08/03,72,164,41
1856,2013/12/14,25,361,15
1857,2012/07/24,4,202,71
1858,2005/07/07,52,261,239
1859,2008/03/09,29,231,424
1860,2015/11/17,56,360,400
1861,2011/07/05,2,173,483
1862,2003/09/10,54,289,327
1863,2014/05/15,74,163,171
1864,2015/05/02,35,257,248
1865,2005/10/25,14,98,168
1866,2015/06/01,96,218,354
1867,2007/10/14,51,358,222
1868,2001/02/11,24,52,360
1869,2000/04/07,62,417,367
1870,2001/12/08,11,319,20
1871,2011/08/23,41,210,329
1872,2001/02/08,83,337,54
1873,2001/01/19,63,455,245
1874,2012/12/23,26,220,256
1875,2014/06/08,12,417,207
1876,2010/08/28,50,413,305
1877,2005/01/05,35,205,119
1878,2017/07/06,82,143,337
1879,2016/08/11,53,324,13
1880,2009/03/25,94,211,344
1881,2013/08/30,91,95,233
1882,2005/02/06,49,245,211
1883,2013/12/07,60,253,418
1884,2004/06/01,11,432,476
1885,2016/06/02,37,206,274
1886,2008/12/25,5,492,141
1887,2002/09/27,29,137,200
1888,2001/06/01,55,356,462
1889,2015/03/20,17,463,453
1890,2008/03/16,57,284,176
1891,2007/02/11,81,126,176
1892,2012/02/12,94,8,105
1893,2000/06/27,42,374,53
1894,2003/06/22,5,210,165
1895,2013/02/09,33,210,1
1896,2004/08/06,38,379,406
1897,2011/09/29,41,116,392
1898,2008/02/06,89,368,305
1899,2005/08/14,25,180,479
1900,2007/09/22,94,329,190
1901,2016/06/14,71,341,386
1902,2012/11/01,5,248,255
1903,2005/03/04,5,143,51
1904,2015/08/04,49,147,233
1905,2017/10/23,74,444,441
1906,2009/11/27,41,357,15
1907,2008/05/17,85,22,176
1908,2000/12/12,75,250,428
1909,2010/12/23,87,235,408
1910,2011/08/30,73,38,220
1911,2014/03/05,39,203,241
1912,2016/09/09,33,168,490
1913,2017/04/05,92,136,40
1914,2010/01/09,80,346,481
1915,2005/09/19,98,136,357
1916,2004/02/16,72,147,434
1917,2006/03/14,9,355,133
1918,2002/04/14,76,454,142
1919,2009/05/03,23,177,293
1920,2003/03/17,61,346,229
1921,2004/05/04,54,214,24
1922,2002/08/28,75,219,383
1923,2000/08/16,23,470,34
1924,2004/07/08,28,179,466
1925,2014/12/21,33,136,334
1926,2016/03/18,14,337,438
1927,2008/02/25,77,142,332
1928,2001/02/23,60,32,165
1929,2007/06/23,43,412,100
1930,2002/11/07,43,488,443
1931,2010/05/19,91,221,243
1932,2010/02/27,56,298,270
1933,2005/02/13,67,484,48
1934,2014/07/31,81,382,390
1935,2012/01/07,29,180,58
1936,2013/08/30,63,25,161
1937,2017/08/04,88,378,477
1938,2015/02/28,78,171,430
1939,2004/07/30,66,488,47
1940,2006/11/27,79,446,92
1941,2007/12/10,81,39,274
1942,2010/01/15,86,309,426
1943,2000/09/13,93,275,335
1944,2014/06/27,43,337,13
1945,2016/06/01,63,459,210
1946,2011/08/23,14,317,266
1947,2003/07/03,44,251,137
1948,2014/12/01,92,293,11
1949,2001/02/07,60,191,11
1950,2004/04/01,25,144,82
1951,2009/09/12,50,474,371
1952,2017/07/29,26,404,453
1953,2004/12/21,36,484,134
1954,2004/01/28,42,256,228
1955,2010/06/04,16,317,117
1956,2016/11/10,62,101,276
1957,2001/11/25,75,461,87
1958,2013/08/19,44,429,261
1959,2013/10/16,6,370,356
1960,2016/10/06,10,324,212
1961,2005/08/15,15,270,252
1962,2009/04/19,3,425,199
1963,2008/02/26,14,107,236
1964,2014/10/20,34,70,358
1965,2001/07/22,21,148,358
1966,2008/04/19,67,277,170
1967,2010/11/03,62,244,495
1968,2016/07/28,60,234,410
1969,2013/04/10,40,371,161
1970,2006/01/25,76,242,3
1971,2008/09/30,13,342,67
1972,2009/08/22,71,262,124
1973,2013/06/20,91,253,191
1974,2004/07/11,33,121,478
1975,2010/10/13,4,127,227
1976,2017/01/01,69,192,73
1977,2016/05/06,33,384,387
1978,2006/08/01,44,280,38
1979,2000/11/16,60,99,387
1980,2012/09/02,47,495,142
1981,2001/06/05,46,420,377
1982,2009/10/29,23,312,152
1983,2012/09/18,9,123,230
1984,2008/09/07,11,460,198
1985,2004/12/10,38,167,143
1986,2016/03/14,76,273,413
1987,2015/08/20,95,381,207
1988,2002/01/26,36,442,151
1989,2001/08/08,68,317,248
1990,2017/06/01,7,174,423
1991,2009/09/11,3,142,46
1992,2008/12/07,16,499,216
1993,2004/09/06,31,178,304
1994,2000/10/22,89,499,10
1995,2013/07/02,54,1,182
1996,2005/08/31,72,313,411
1997,2002/06/10,35,47,16
1998,2016/01/07,6,497,314
1999,2002/12/10,15,341,109
2000,2000/12/06,36,14,495
